# File produced by Open Asset Import Library (http://www.assimp.sf.net)
# (assimp v3.0.1262)

mtllib parts8.stl.obj.mtl

# 60 vertex positions
v  0.0001 45 0
v  0.0001 45 39.2152
v  45.0001 45 0
v  45.0001 45 0
v  0.0001 45 39.2152
v  45.0001 45 39.2152
v  0.0001 40.6991 0
v  0.0001 40.6991 36.3138
v  0.0001 45 0
v  0.0001 45 0
v  0.0001 40.6991 36.3138
v  0.0001 45 39.2152
v  45.0001 42.7365 0
v  18.9939 31.5826 0
v  45.0001 45 0
v  45.0001 45 0
v  18.9939 31.5826 0
v  0.0001 45 0
v  0.0001 45 0
v  18.9939 31.5826 0
v  16.6903 31.5826 0
v  0.0001 45 0
v  16.6903 31.5826 0
v  0.0001 40.6991 0
v  45.0001 45 39.2152
v  45.0001 42.7365 37.6882
v  45.0001 45 0
v  45.0001 45 0
v  45.0001 42.7365 37.6882
v  45.0001 42.7365 0
v  17.7035 31.0292 0.340794
v  17.7035 31.0292 29.7904
v  16.6903 31.5826 0
v  16.6903 31.5826 0
v  17.7035 31.0292 29.7904
v  0.0001 40.6991 0
v  0.0001 40.6991 0
v  17.7035 31.0292 29.7904
v  0.0001 40.6991 36.3138
v  45.0001 42.7365 0
v  45.0001 42.7365 37.6882
v  18.9939 31.5826 0
v  18.9939 31.5826 0
v  45.0001 42.7365 37.6882
v  17.7035 31.0292 0.340794
v  17.7035 31.0292 0.340794
v  45.0001 42.7365 37.6882
v  17.7035 31.0292 29.7904
v  45.0001 45 39.2152
v  0.0001 45 39.2152
v  45.0001 42.7365 37.6882
v  45.0001 42.7365 37.6882
v  0.0001 45 39.2152
v  17.7035 31.0292 29.7904
v  17.7035 31.0292 29.7904
v  0.0001 45 39.2152
v  0.0001 40.6991 36.3138
v  17.7035 31.0292 0.340794
v  16.6903 31.5826 0
v  18.9939 31.5826 0

# 0 UV coordinates

# 60 vertex normals
vn 0 1 0
vn 0 1 0
vn 0 1 0
vn 0 1 0
vn 0 1 0
vn -0 1 0
vn -1 0 0
vn -1 0 0
vn -1 0 0
vn -1 0 0
vn -1 0 0
vn -1 0 0
vn 0 0 -1
vn 0 0 -1
vn 0 0 -1
vn 0 0 -1
vn 0 0 -1
vn 0 0 -1
vn 0 0 -1
vn 0 0 -1
vn 0 0 -1
vn 0 0 -1
vn 0 0 -1
vn 0 0 -1
vn 1 -0 0
vn 1 -0 0
vn 1 -0 0
vn 1 -0 0
vn 1 -0 0
vn 1 0 0
vn -0.479369 -0.877614 -0
vn -0.479369 -0.877614 -0
vn -0.479369 -0.877614 -0
vn -0.479369 -0.877614 -0
vn -0.479369 -0.877614 -0
vn -0.479369 -0.877614 -3.9021e-09
vn -0.479369 -0.877614 -3.9021e-09
vn -0.479369 -0.877614 -0
vn -0.479369 -0.877614 0
vn 0.394168 -0.919038 0
vn 0.394168 -0.919038 0
vn 0.394168 -0.919038 0
vn 0.394168 -0.919038 0
vn 0.394168 -0.919038 0
vn 0.394168 -0.919038 -1.88517e-07
vn 0.394168 -0.919038 -1.88517e-07
vn 0.394168 -0.919038 0
vn 0.394168 -0.919038 0
vn 0 -0.559249 0.829
vn 0 -0.559249 0.829
vn 0 -0.559249 0.829
vn 0 -0.559249 0.829
vn 0 -0.559249 0.829
vn -1.86503e-08 -0.559249 0.829
vn -1.86503e-08 -0.559249 0.829
vn 0 -0.559249 0.829
vn -1.08157e-07 -0.559249 0.829
vn 0 -0.52434 -0.851509
vn 0 -0.52434 -0.851509
vn 0 -0.52434 -0.851509

# Mesh '<STL_BINARY>' with 20 faces
g <STL_BINARY>
usemtl DefaultMaterial
f  1//1 2//2 3//3
f  4//4 5//5 6//6
f  7//7 8//8 9//9
f  10//10 11//11 12//12
f  13//13 14//14 15//15
f  16//16 17//17 18//18
f  19//19 20//20 21//21
f  22//22 23//23 24//24
f  25//25 26//26 27//27
f  28//28 29//29 30//30
f  31//31 32//32 33//33
f  34//34 35//35 36//36
f  37//37 38//38 39//39
f  40//40 41//41 42//42
f  43//43 44//44 45//45
f  46//46 47//47 48//48
f  49//49 50//50 51//51
f  52//52 53//53 54//54
f  55//55 56//56 57//57
f  58//58 59//59 60//60

